Formula One Analysis
…
ferrari_comb = Ferrari_data |>
  group_by(year) |>
  summarize(
    total_points = max(points.x, na.rm = TRUE),
    total_wins = sum(wins, na.rm = TRUE),
    avg_position = mean(position, na.rm = TRUE)
  )
head(ferrari_comb, 90)

# A tibble: 67 × 4
    year total_points total_wins avg_position
   <int>        <dbl>      <int>        <dbl>
 1  1958           40         11         1.6 
 2  1959           32          9         2.14
 3  1960           26          1         2.75
 4  1961           45         19         1.14
 5  1962           18          0         4   
 6  1963           26          5         3.9 
 7  1964           45         12         3.1 
 8  1965           26          0         2.9 
 9  1966           31          8         1.71
10  1967           20          0         4.1 
# ℹ 57 more rows
…
ferrari_comb = Ferrari_data |>
  group_by(year) |>
  summarize(
    total_points = max(points.x, na.rm = TRUE),
    total_wins= n_distinct(raceId[wins > 0]),
    avg_position = mean(position, na.rm = TRUE)
  )
head(ferrari_comb, 70)

# A tibble: 67 × 4
    year total_points total_wins avg_position
   <int>        <dbl>      <int>        <dbl>
 1  1958           40          6         1.6 
 2  1959           32          5         2.14
 3  1960           26          1         2.75
 4  1961           45          6         1.14
 5  1962           18          0         4   
 6  1963           26          5         3.9 
 7  1964           45          5         3.1 
 8  1965           26          0         2.9 
 9  1966           31          6         1.71
10  1967           20          0         4.1 
# ℹ 57 more rows
…
